%YAML 1.1
%TAG !u! tag:unity3d.com,2011:
--- !u!114 &11400000
MonoBehaviour:
  m_ObjectHideFlags: 0
  m_CorrespondingSourceObject: {fileID: 0}
  m_PrefabInstance: {fileID: 0}
  m_PrefabAsset: {fileID: 0}
  m_GameObject: {fileID: 0}
  m_Enabled: 1
  m_EditorHideFlags: 0
  m_Script: {fileID: 0}
  m_Name: FALLS_1
  m_EditorClassIdentifier: Assembly-CSharp:UnityEngine.Tilemaps:AnimatedTile
  m_AnimatedSprites:
  - {fileID: -3737301522264453969, guid: 0cb368a7b1ac2ea4d9478b46c33eca54, type: 3}
  - {fileID: 4455596728128323939, guid: 0cb368a7b1ac2ea4d9478b46c33eca54, type: 3}
  - {fileID: -8280423756402524561, guid: 0cb368a7b1ac2ea4d9478b46c33eca54, type: 3}
  - {fileID: 3406739619049346302, guid: 0cb368a7b1ac2ea4d9478b46c33eca54, type: 3}
  m_MinSpeed: 1
  m_MaxSpeed: 1
  m_AnimationStartTime: 0
  m_AnimationStartFrame: 0
  m_TileColliderType: 1
