%YAML 1.1
%TAG !u! tag:unity3d.com,2011:
--- !u!114 &11400000
MonoBehaviour:
  m_ObjectHideFlags: 0
  m_CorrespondingSourceObject: {fileID: 0}
  m_PrefabInstance: {fileID: 0}
  m_PrefabAsset: {fileID: 0}
  m_GameObject: {fileID: 0}
  m_Enabled: 1
  m_EditorHideFlags: 0
  m_Script: {fileID: 0}
  m_Name: TORCH3_U
  m_EditorClassIdentifier: Assembly-CSharp:UnityEngine.Tilemaps:AnimatedTile
  m_AnimatedSprites:
  - {fileID: -3089984995729614339, guid: bc6e63bcb87679146bb8f81a8079117a, type: 3}
  - {fileID: -248965622860329340, guid: bc6e63bcb87679146bb8f81a8079117a, type: 3}
  - {fileID: 3003007968402593496, guid: bc6e63bcb87679146bb8f81a8079117a, type: 3}
  - {fileID: 2525591676646601107, guid: bc6e63bcb87679146bb8f81a8079117a, type: 3}
  m_MinSpeed: 1
  m_MaxSpeed: 1
  m_AnimationStartTime: 0
  m_AnimationStartFrame: 0
  m_TileColliderType: 1
