%YAML 1.1
%TAG !u! tag:unity3d.com,2011:
--- !u!114 &11400000
MonoBehaviour:
  m_ObjectHideFlags: 0
  m_CorrespondingSourceObject: {fileID: 0}
  m_PrefabInstance: {fileID: 0}
  m_PrefabAsset: {fileID: 0}
  m_GameObject: {fileID: 0}
  m_Enabled: 1
  m_EditorHideFlags: 0
  m_Script: {fileID: 0}
  m_Name: TORCH1_U
  m_EditorClassIdentifier: Assembly-CSharp:UnityEngine.Tilemaps:AnimatedTile
  m_AnimatedSprites:
  - {fileID: -1466002341694311063, guid: 0cb368a7b1ac2ea4d9478b46c33eca54, type: 3}
  - {fileID: 3837020259241829752, guid: 0cb368a7b1ac2ea4d9478b46c33eca54, type: 3}
  - {fileID: 8529829321996244992, guid: 0cb368a7b1ac2ea4d9478b46c33eca54, type: 3}
  - {fileID: -8129696880606770582, guid: 0cb368a7b1ac2ea4d9478b46c33eca54, type: 3}
  m_MinSpeed: 1
  m_MaxSpeed: 1
  m_AnimationStartTime: 0
  m_AnimationStartFrame: 0
  m_TileColliderType: 1
