%YAML 1.1
%TAG !u! tag:unity3d.com,2011:
--- !u!114 &11400000
MonoBehaviour:
  m_ObjectHideFlags: 0
  m_CorrespondingSourceObject: {fileID: 0}
  m_PrefabInstance: {fileID: 0}
  m_PrefabAsset: {fileID: 0}
  m_GameObject: {fileID: 0}
  m_Enabled: 1
  m_EditorHideFlags: 0
  m_Script: {fileID: 11500000, guid: 5139a08876c00b043afbf29e13a39735, type: 3}
  m_Name: StartArea
  m_EditorClassIdentifier: 
  description: '

    You awaken in a large house. It is not your home, but it is
    familiar to you.'
  roomName: Start Area
  exits:
  - keyString: NORTH
    exitDescription: You see a dark doorway to the North.
    valueRoom: {fileID: 11400000, guid: 4ce372bdd35767f4a99bac2c71b6514c, type: 2}
  interactableObjectsInRoom:
  - {fileID: 11400000, guid: 0c5fe9da0209573449f187465816f1fa, type: 2}
