%YAML 1.1
%TAG !u! tag:unity3d.com,2011:
--- !u!114 &11400000
MonoBehaviour:
  m_ObjectHideFlags: 0
  m_CorrespondingSourceObject: {fileID: 0}
  m_PrefabInstance: {fileID: 0}
  m_PrefabAsset: {fileID: 0}
  m_GameObject: {fileID: 0}
  m_Enabled: 1
  m_EditorHideFlags: 0
  m_Script: {fileID: 11500000, guid: 5139a08876c00b043afbf29e13a39735, type: 3}
  m_Name: WinRoom
  m_EditorClassIdentifier: 
  description: You win! Good job!
  roomName: 
  exits: []
  interactableObjectsInRoom: []
