%YAML 1.1
%TAG !u! tag:unity3d.com,2011:
--- !u!114 &11400000
MonoBehaviour:
  m_ObjectHideFlags: 0
  m_CorrespondingSourceObject: {fileID: 0}
  m_PrefabInstance: {fileID: 0}
  m_PrefabAsset: {fileID: 0}
  m_GameObject: {fileID: 0}
  m_Enabled: 1
  m_EditorHideFlags: 0
  m_Script: {fileID: 11500000, guid: 981415b30fc4b764b8182c1bd90422ac, type: 3}
  m_Name: Skull
  m_EditorClassIdentifier: 
  noun: SKULL
  description: A weathered human skull lies in the corner!!!
  interactions:
  - inputAction: {fileID: 11400000, guid: bc99af4563c7bf948a834b53f7f0284f, type: 2}
    textResponse: The skull is gross. Sorry!
    actRe: {fileID: 0}
  - inputAction: {fileID: 11400000, guid: 8f28c74c82758f146877a65c5776e8a7, type: 2}
    textResponse: You take the skull. Yuck.
    actRe: {fileID: 0}
  - inputAction: {fileID: 11400000, guid: 61bf21be8cd5dbc43a6a9d2f216db5af, type: 2}
    textResponse: 
    actRe: {fileID: 11400000, guid: 6f83c121233aa6146b5927f897f55ed3, type: 2}
